xof 0303txt 0032
template Vector {
 <3d82ab5e-62da-11cf-ab39-0020af71e433>
 FLOAT x;
 FLOAT y;
 FLOAT z;
}

template MeshFace {
 <3d82ab5f-62da-11cf-ab39-0020af71e433>
 DWORD nFaceVertexIndices;
 array DWORD faceVertexIndices[nFaceVertexIndices];
}

template Mesh {
 <3d82ab44-62da-11cf-ab39-0020af71e433>
 DWORD nVertices;
 array Vector vertices[nVertices];
 DWORD nFaces;
 array MeshFace faces[nFaces];
 [...]
}

template MeshNormals {
 <f6f23f43-7686-11cf-8f52-0040333594a3>
 DWORD nNormals;
 array Vector normals[nNormals];
 DWORD nFaceNormals;
 array MeshFace faceNormals[nFaceNormals];
}

template Coords2d {
 <f6f23f44-7686-11cf-8f52-0040333594a3>
 FLOAT u;
 FLOAT v;
}

template MeshTextureCoords {
 <f6f23f40-7686-11cf-8f52-0040333594a3>
 DWORD nTextureCoords;
 array Coords2d textureCoords[nTextureCoords];
}


Mesh {
 18;
 0.063900;-0.000187;0.416010;,
 -0.063900;0.000012;0.416000;,
 -0.063900;0.000100;-0.000005;,
 -0.063900;0.000012;0.416000;,
 -0.063900;0.000100;-0.000005;,
 0.063900;-0.000100;0.000005;,
 0.059800;-0.060265;0.000157;,
 0.059800;-0.060352;0.416163;,
 0.063900;-0.000187;0.416010;,
 0.059800;-0.060352;0.416163;,
 0.063900;-0.000187;0.416010;,
 0.063900;-0.000100;0.000005;,
 -0.060000;-0.060065;0.000147;,
 -0.060000;-0.060153;0.416153;,
 -0.063900;0.000012;0.416000;,
 -0.060000;-0.060153;0.416153;,
 -0.063900;0.000012;0.416000;,
 -0.063900;0.000100;-0.000005;;
 6;
 3;0,1,2;,
 3;3,4,5;,
 3;6,7,8;,
 3;9,10,11;,
 3;12,13,14;,
 3;15,16,17;;

 MeshNormals {
  18;
  -0.001558;-0.999999;-0.000211;,
  -0.001558;-0.999999;-0.000211;,
  -0.001558;-0.999999;-0.000211;,
  -0.001558;-0.999999;-0.000211;,
  -0.001558;-0.999999;-0.000211;,
  -0.001558;-0.999999;-0.000211;,
  -0.997686;0.067993;0.000014;,
  -0.997686;0.067993;0.000014;,
  -0.997686;0.067993;0.000014;,
  -0.997686;0.067993;0.000014;,
  -0.997686;0.067993;0.000014;,
  -0.997686;0.067993;0.000014;,
  -0.997906;-0.064681;-0.000014;,
  -0.997906;-0.064681;-0.000014;,
  -0.997906;-0.064681;-0.000014;,
  -0.997906;-0.064681;-0.000014;,
  -0.997906;-0.064681;-0.000014;,
  -0.997906;-0.064681;-0.000014;;
  6;
  3;0,1,2;,
  3;3,4,5;,
  3;6,7,8;,
  3;9,10,11;,
  3;12,13,14;,
  3;15,16,17;;
 }

 MeshTextureCoords {
  18;
  0.000000;0.000000;,
  0.000000;0.000000;,
  0.000000;0.000000;,
  0.000000;0.000000;,
  0.000000;0.000000;,
  0.000000;0.000000;,
  0.000000;0.000000;,
  0.000000;0.000000;,
  0.000000;0.000000;,
  0.000000;0.000000;,
  0.000000;0.000000;,
  0.000000;0.000000;,
  0.000000;0.000000;,
  0.000000;0.000000;,
  0.000000;0.000000;,
  0.000000;0.000000;,
  0.000000;0.000000;,
  0.000000;0.000000;;
 }
}