^D:\3_ROTATE\UTILITIES\DEBUG\ESSHADER.OBJ|D:\3_ROTATE\UTILITIES\DEBUG\ESUTIL.OBJ|D:\3_ROTATE\UTILITIES\DEBUG\ESUTIL_WIN.OBJ|D:\3_ROTATE\UTILITIES\DEBUG\MATH.OBJ|D:\3_ROTATE\UTILITIES\DEBUG\MEMORYMANAGER.OBJ|D:\3_ROTATE\UTILITIES\DEBUG\MEMORYOPERATORS.OBJ|D:\3_ROTATE\UTILITIES\DEBUG\STDAFX.OBJ|D:\3_ROTATE\UTILITIES\DEBUG\TGA.OBJ
C:\PROGRAM FILES (X86)\MICROSOFT VISUAL STUDIO 12.0\VC\BIN\LINK.EXE
C:\WINDOWS\SYSTEM32\TZRES.DLL
D:\3_ROTATE\UTILITIES\DEBUG\ESSHADER.OBJ
D:\3_ROTATE\UTILITIES\DEBUG\ESUTIL.OBJ
D:\3_ROTATE\UTILITIES\DEBUG\ESUTIL_WIN.OBJ
D:\3_ROTATE\UTILITIES\DEBUG\MATH.OBJ
D:\3_ROTATE\UTILITIES\DEBUG\MEMORYMANAGER.OBJ
D:\3_ROTATE\UTILITIES\DEBUG\MEMORYOPERATORS.OBJ
D:\3_ROTATE\UTILITIES\DEBUG\STDAFX.OBJ
D:\3_ROTATE\UTILITIES\DEBUG\TGA.OBJ
C:\WINDOWS\GLOBALIZATION\SORTING\SORTDEFAULT.NLS
