^D:\NEWTRAININGFRAMEWORK\UTILITIES\STDAFX.CPP
/c /ID:\NewTrainingFramework\\Include /ZI /nologo /W3 /WX- /Od /Oy- /D WIN32 /D _DEBUG /D _LIB /D _MBCS /Gm /EHsc /RTC1 /MDd /GS /fp:precise /Zc:wchar_t /Zc:forScope /Yc"stdafx.h" /Fp"DEBUG\UTILITIES.PCH" /Fo"DEBUG\\" /Fd"DEBUG\VC120.PDB" /Gd /TP /analyze- D:\NEWTRAININGFRAMEWORK\UTILITIES\STDAFX.CPP
^D:\NEWTRAININGFRAMEWORK\UTILITIES\ESSHADER.CPP
/c /ID:\NewTrainingFramework\\Include /ZI /nologo /W3 /WX- /Od /Oy- /D WIN32 /D _DEBUG /D _LIB /D _MBCS /Gm /EHsc /RTC1 /MDd /GS /fp:precise /Zc:wchar_t /Zc:forScope /Yu"stdafx.h" /Fp"DEBUG\UTILITIES.PCH" /Fo"DEBUG\\" /Fd"DEBUG\VC120.PDB" /Gd /TP /analyze- D:\NEWTRAININGFRAMEWORK\UTILITIES\ESSHADER.CPP
^D:\NEWTRAININGFRAMEWORK\UTILITIES\ESUTIL.CPP
/c /ID:\NewTrainingFramework\\Include /ZI /nologo /W3 /WX- /Od /Oy- /D WIN32 /D _DEBUG /D _LIB /D _MBCS /Gm /EHsc /RTC1 /MDd /GS /fp:precise /Zc:wchar_t /Zc:forScope /Yu"stdafx.h" /Fp"DEBUG\UTILITIES.PCH" /Fo"DEBUG\\" /Fd"DEBUG\VC120.PDB" /Gd /TP /analyze- D:\NEWTRAININGFRAMEWORK\UTILITIES\ESUTIL.CPP
^D:\NEWTRAININGFRAMEWORK\UTILITIES\ESUTIL_WIN.CPP
/c /ID:\NewTrainingFramework\\Include /ZI /nologo /W3 /WX- /Od /Oy- /D WIN32 /D _DEBUG /D _LIB /D _MBCS /Gm /EHsc /RTC1 /MDd /GS /fp:precise /Zc:wchar_t /Zc:forScope /Yu"stdafx.h" /Fp"DEBUG\UTILITIES.PCH" /Fo"DEBUG\\" /Fd"DEBUG\VC120.PDB" /Gd /TP /analyze- D:\NEWTRAININGFRAMEWORK\UTILITIES\ESUTIL_WIN.CPP
^D:\NEWTRAININGFRAMEWORK\UTILITIES\MATH.CPP
/c /ID:\NewTrainingFramework\\Include /ZI /nologo /W3 /WX- /Od /Oy- /D WIN32 /D _DEBUG /D _LIB /D _MBCS /Gm /EHsc /RTC1 /MDd /GS /fp:precise /Zc:wchar_t /Zc:forScope /Yu"stdafx.h" /Fp"DEBUG\UTILITIES.PCH" /Fo"DEBUG\\" /Fd"DEBUG\VC120.PDB" /Gd /TP /analyze- D:\NEWTRAININGFRAMEWORK\UTILITIES\MATH.CPP
^D:\NEWTRAININGFRAMEWORK\UTILITIES\MEMORYMANAGER.CPP
/c /ID:\NewTrainingFramework\\Include /ZI /nologo /W3 /WX- /Od /Oy- /D WIN32 /D _DEBUG /D _LIB /D _MBCS /Gm /EHsc /RTC1 /MDd /GS /fp:precise /Zc:wchar_t /Zc:forScope /Yu"stdafx.h" /Fp"DEBUG\UTILITIES.PCH" /Fo"DEBUG\\" /Fd"DEBUG\VC120.PDB" /Gd /TP /analyze- D:\NEWTRAININGFRAMEWORK\UTILITIES\MEMORYMANAGER.CPP
^D:\NEWTRAININGFRAMEWORK\UTILITIES\MEMORYOPERATORS.CPP
/c /ID:\NewTrainingFramework\\Include /ZI /nologo /W3 /WX- /Od /Oy- /D WIN32 /D _DEBUG /D _LIB /D _MBCS /Gm /EHsc /RTC1 /MDd /GS /fp:precise /Zc:wchar_t /Zc:forScope /Yu"stdafx.h" /Fp"DEBUG\UTILITIES.PCH" /Fo"DEBUG\\" /Fd"DEBUG\VC120.PDB" /Gd /TP /analyze- D:\NEWTRAININGFRAMEWORK\UTILITIES\MEMORYOPERATORS.CPP
^D:\NEWTRAININGFRAMEWORK\UTILITIES\TGA.CPP
/c /ID:\NewTrainingFramework\\Include /ZI /nologo /W3 /WX- /Od /Oy- /D WIN32 /D _DEBUG /D _LIB /D _MBCS /Gm /EHsc /RTC1 /MDd /GS /fp:precise /Zc:wchar_t /Zc:forScope /Yu"stdafx.h" /Fp"DEBUG\UTILITIES.PCH" /Fo"DEBUG\\" /Fd"DEBUG\VC120.PDB" /Gd /TP /analyze- D:\NEWTRAININGFRAMEWORK\UTILITIES\TGA.CPP
^D:\НОВАЯ ПАПКА (6)\GAMELOFT_HOMEWORK\2_COLOR\UTILITIES\STDAFX.CPP
/c /I"D:\Новая папка (6)\gameloft_homework\2_Color\\Include" /ZI /nologo /W3 /WX- /Od /Oy- /D WIN32 /D _DEBUG /D _LIB /D _MBCS /Gm /EHsc /RTC1 /MDd /GS /fp:precise /Zc:wchar_t /Zc:forScope /Yc"stdafx.h" /Fp"DEBUG\UTILITIES.PCH" /Fo"DEBUG\\" /Fd"DEBUG\VC120.PDB" /Gd /TP /analyze- D:\НОВАЯ ПАПКА (6)\GAMELOFT_HOMEWORK\2_COLOR\UTILITIES\STDAFX.CPP
^D:\НОВАЯ ПАПКА (6)\GAMELOFT_HOMEWORK\2_COLOR\UTILITIES\ESSHADER.CPP
/c /I"D:\Новая папка (6)\gameloft_homework\2_Color\\Include" /ZI /nologo /W3 /WX- /Od /Oy- /D WIN32 /D _DEBUG /D _LIB /D _MBCS /Gm /EHsc /RTC1 /MDd /GS /fp:precise /Zc:wchar_t /Zc:forScope /Yu"stdafx.h" /Fp"DEBUG\UTILITIES.PCH" /Fo"DEBUG\\" /Fd"DEBUG\VC120.PDB" /Gd /TP /analyze- D:\НОВАЯ ПАПКА (6)\GAMELOFT_HOMEWORK\2_COLOR\UTILITIES\ESSHADER.CPP
^D:\НОВАЯ ПАПКА (6)\GAMELOFT_HOMEWORK\2_COLOR\UTILITIES\ESUTIL.CPP
/c /I"D:\Новая папка (6)\gameloft_homework\2_Color\\Include" /ZI /nologo /W3 /WX- /Od /Oy- /D WIN32 /D _DEBUG /D _LIB /D _MBCS /Gm /EHsc /RTC1 /MDd /GS /fp:precise /Zc:wchar_t /Zc:forScope /Yu"stdafx.h" /Fp"DEBUG\UTILITIES.PCH" /Fo"DEBUG\\" /Fd"DEBUG\VC120.PDB" /Gd /TP /analyze- D:\НОВАЯ ПАПКА (6)\GAMELOFT_HOMEWORK\2_COLOR\UTILITIES\ESUTIL.CPP
^D:\НОВАЯ ПАПКА (6)\GAMELOFT_HOMEWORK\2_COLOR\UTILITIES\ESUTIL_WIN.CPP
/c /I"D:\Новая папка (6)\gameloft_homework\2_Color\\Include" /ZI /nologo /W3 /WX- /Od /Oy- /D WIN32 /D _DEBUG /D _LIB /D _MBCS /Gm /EHsc /RTC1 /MDd /GS /fp:precise /Zc:wchar_t /Zc:forScope /Yu"stdafx.h" /Fp"DEBUG\UTILITIES.PCH" /Fo"DEBUG\\" /Fd"DEBUG\VC120.PDB" /Gd /TP /analyze- D:\НОВАЯ ПАПКА (6)\GAMELOFT_HOMEWORK\2_COLOR\UTILITIES\ESUTIL_WIN.CPP
^D:\НОВАЯ ПАПКА (6)\GAMELOFT_HOMEWORK\2_COLOR\UTILITIES\MATH.CPP
/c /I"D:\Новая папка (6)\gameloft_homework\2_Color\\Include" /ZI /nologo /W3 /WX- /Od /Oy- /D WIN32 /D _DEBUG /D _LIB /D _MBCS /Gm /EHsc /RTC1 /MDd /GS /fp:precise /Zc:wchar_t /Zc:forScope /Yu"stdafx.h" /Fp"DEBUG\UTILITIES.PCH" /Fo"DEBUG\\" /Fd"DEBUG\VC120.PDB" /Gd /TP /analyze- D:\НОВАЯ ПАПКА (6)\GAMELOFT_HOMEWORK\2_COLOR\UTILITIES\MATH.CPP
^D:\НОВАЯ ПАПКА (6)\GAMELOFT_HOMEWORK\2_COLOR\UTILITIES\MEMORYMANAGER.CPP
/c /I"D:\Новая папка (6)\gameloft_homework\2_Color\\Include" /ZI /nologo /W3 /WX- /Od /Oy- /D WIN32 /D _DEBUG /D _LIB /D _MBCS /Gm /EHsc /RTC1 /MDd /GS /fp:precise /Zc:wchar_t /Zc:forScope /Yu"stdafx.h" /Fp"DEBUG\UTILITIES.PCH" /Fo"DEBUG\\" /Fd"DEBUG\VC120.PDB" /Gd /TP /analyze- D:\НОВАЯ ПАПКА (6)\GAMELOFT_HOMEWORK\2_COLOR\UTILITIES\MEMORYMANAGER.CPP
^D:\НОВАЯ ПАПКА (6)\GAMELOFT_HOMEWORK\2_COLOR\UTILITIES\MEMORYOPERATORS.CPP
/c /I"D:\Новая папка (6)\gameloft_homework\2_Color\\Include" /ZI /nologo /W3 /WX- /Od /Oy- /D WIN32 /D _DEBUG /D _LIB /D _MBCS /Gm /EHsc /RTC1 /MDd /GS /fp:precise /Zc:wchar_t /Zc:forScope /Yu"stdafx.h" /Fp"DEBUG\UTILITIES.PCH" /Fo"DEBUG\\" /Fd"DEBUG\VC120.PDB" /Gd /TP /analyze- D:\НОВАЯ ПАПКА (6)\GAMELOFT_HOMEWORK\2_COLOR\UTILITIES\MEMORYOPERATORS.CPP
^D:\НОВАЯ ПАПКА (6)\GAMELOFT_HOMEWORK\2_COLOR\UTILITIES\TGA.CPP
/c /I"D:\Новая папка (6)\gameloft_homework\2_Color\\Include" /ZI /nologo /W3 /WX- /Od /Oy- /D WIN32 /D _DEBUG /D _LIB /D _MBCS /Gm /EHsc /RTC1 /MDd /GS /fp:precise /Zc:wchar_t /Zc:forScope /Yu"stdafx.h" /Fp"DEBUG\UTILITIES.PCH" /Fo"DEBUG\\" /Fd"DEBUG\VC120.PDB" /Gd /TP /analyze- D:\НОВАЯ ПАПКА (6)\GAMELOFT_HOMEWORK\2_COLOR\UTILITIES\TGA.CPP
