^D:\NEWTRAININGFRAMEWORK\UTILITIES\STDAFX.CPP
D:\NEWTRAININGFRAMEWORK\UTILITIES\DEBUG\UTILITIES.PCH
D:\NEWTRAININGFRAMEWORK\UTILITIES\DEBUG\VC120.PDB
D:\NEWTRAININGFRAMEWORK\UTILITIES\DEBUG\VC120.IDB
D:\NEWTRAININGFRAMEWORK\UTILITIES\DEBUG\STDAFX.OBJ
^D:\NEWTRAININGFRAMEWORK\UTILITIES\ESSHADER.CPP|D:\NEWTRAININGFRAMEWORK\UTILITIES\ESUTIL.CPP|D:\NEWTRAININGFRAMEWORK\UTILITIES\ESUTIL_WIN.CPP|D:\NEWTRAININGFRAMEWORK\UTILITIES\MATH.CPP|D:\NEWTRAININGFRAMEWORK\UTILITIES\MEMORYMANAGER.CPP|D:\NEWTRAININGFRAMEWORK\UTILITIES\MEMORYOPERATORS.CPP|D:\NEWTRAININGFRAMEWORK\UTILITIES\TGA.CPP
D:\NEWTRAININGFRAMEWORK\UTILITIES\DEBUG\VC120.PDB
D:\NEWTRAININGFRAMEWORK\UTILITIES\DEBUG\VC120.IDB
D:\NEWTRAININGFRAMEWORK\UTILITIES\DEBUG\ESSHADER.OBJ
D:\NEWTRAININGFRAMEWORK\UTILITIES\DEBUG\ESUTIL.OBJ
D:\NEWTRAININGFRAMEWORK\UTILITIES\DEBUG\ESUTIL_WIN.OBJ
D:\NEWTRAININGFRAMEWORK\UTILITIES\DEBUG\MATH.OBJ
D:\NEWTRAININGFRAMEWORK\UTILITIES\DEBUG\MEMORYMANAGER.OBJ
D:\NEWTRAININGFRAMEWORK\UTILITIES\DEBUG\MEMORYOPERATORS.OBJ
D:\NEWTRAININGFRAMEWORK\UTILITIES\DEBUG\TGA.OBJ
^D:\NEWTRAININGFRAMEWORK\UTILITIES\ESSHADER.CPP
D:\NEWTRAININGFRAMEWORK\UTILITIES\DEBUG\VC120.PDB
^D:\NEWTRAININGFRAMEWORK\UTILITIES\ESUTIL.CPP
D:\NEWTRAININGFRAMEWORK\UTILITIES\DEBUG\VC120.PDB
^D:\NEWTRAININGFRAMEWORK\UTILITIES\ESUTIL_WIN.CPP
D:\NEWTRAININGFRAMEWORK\UTILITIES\DEBUG\VC120.PDB
^D:\NEWTRAININGFRAMEWORK\UTILITIES\MATH.CPP
D:\NEWTRAININGFRAMEWORK\UTILITIES\DEBUG\VC120.PDB
^D:\NEWTRAININGFRAMEWORK\UTILITIES\MEMORYMANAGER.CPP
D:\NEWTRAININGFRAMEWORK\UTILITIES\DEBUG\VC120.PDB
^D:\NEWTRAININGFRAMEWORK\UTILITIES\MEMORYOPERATORS.CPP
D:\NEWTRAININGFRAMEWORK\UTILITIES\DEBUG\VC120.PDB
^D:\NEWTRAININGFRAMEWORK\UTILITIES\TGA.CPP
D:\NEWTRAININGFRAMEWORK\UTILITIES\DEBUG\VC120.PDB
^D:\НОВАЯ ПАПКА (6)\GAMELOFT_HOMEWORK\2_COLOR\UTILITIES\STDAFX.CPP
D:\Новая папка (6)\GAMELOFT_HOMEWORK\2_COLOR\UTILITIES\DEBUG\UTILITIES.PCH
D:\новая папка (6)\GAMELOFT_HOMEWORK\2_COLOR\UTILITIES\DEBUG\VC120.PDB
D:\новая папка (6)\GAMELOFT_HOMEWORK\2_COLOR\UTILITIES\DEBUG\VC120.IDB
D:\Новая папка (6)\GAMELOFT_HOMEWORK\2_COLOR\UTILITIES\DEBUG\STDAFX.OBJ
^D:\НОВАЯ ПАПКА (6)\GAMELOFT_HOMEWORK\2_COLOR\UTILITIES\ESSHADER.CPP|D:\НОВАЯ ПАПКА (6)\GAMELOFT_HOMEWORK\2_COLOR\UTILITIES\ESUTIL.CPP|D:\НОВАЯ ПАПКА (6)\GAMELOFT_HOMEWORK\2_COLOR\UTILITIES\ESUTIL_WIN.CPP|D:\НОВАЯ ПАПКА (6)\GAMELOFT_HOMEWORK\2_COLOR\UTILITIES\MATH.CPP|D:\НОВАЯ ПАПКА (6)\GAMELOFT_HOMEWORK\2_COLOR\UTILITIES\MEMORYMANAGER.CPP|D:\НОВАЯ ПАПКА (6)\GAMELOFT_HOMEWORK\2_COLOR\UTILITIES\MEMORYOPERATORS.CPP|D:\НОВАЯ ПАПКА (6)\GAMELOFT_HOMEWORK\2_COLOR\UTILITIES\TGA.CPP
D:\новая папка (6)\GAMELOFT_HOMEWORK\2_COLOR\UTILITIES\DEBUG\VC120.PDB
D:\новая папка (6)\GAMELOFT_HOMEWORK\2_COLOR\UTILITIES\DEBUG\VC120.IDB
D:\Новая папка (6)\GAMELOFT_HOMEWORK\2_COLOR\UTILITIES\DEBUG\ESSHADER.OBJ
D:\Новая папка (6)\GAMELOFT_HOMEWORK\2_COLOR\UTILITIES\DEBUG\ESUTIL.OBJ
D:\Новая папка (6)\GAMELOFT_HOMEWORK\2_COLOR\UTILITIES\DEBUG\ESUTIL_WIN.OBJ
D:\Новая папка (6)\GAMELOFT_HOMEWORK\2_COLOR\UTILITIES\DEBUG\MATH.OBJ
D:\Новая папка (6)\GAMELOFT_HOMEWORK\2_COLOR\UTILITIES\DEBUG\MEMORYMANAGER.OBJ
D:\Новая папка (6)\GAMELOFT_HOMEWORK\2_COLOR\UTILITIES\DEBUG\MEMORYOPERATORS.OBJ
D:\Новая папка (6)\GAMELOFT_HOMEWORK\2_COLOR\UTILITIES\DEBUG\TGA.OBJ
^D:\НОВАЯ ПАПКА (6)\GAMELOFT_HOMEWORK\2_COLOR\UTILITIES\ESSHADER.CPP
D:\НОВАЯ ПАПКА (6)\GAMELOFT_HOMEWORK\2_COLOR\UTILITIES\DEBUG\VC120.PDB
^D:\НОВАЯ ПАПКА (6)\GAMELOFT_HOMEWORK\2_COLOR\UTILITIES\ESUTIL.CPP
D:\НОВАЯ ПАПКА (6)\GAMELOFT_HOMEWORK\2_COLOR\UTILITIES\DEBUG\VC120.PDB
^D:\НОВАЯ ПАПКА (6)\GAMELOFT_HOMEWORK\2_COLOR\UTILITIES\ESUTIL_WIN.CPP
D:\НОВАЯ ПАПКА (6)\GAMELOFT_HOMEWORK\2_COLOR\UTILITIES\DEBUG\VC120.PDB
^D:\НОВАЯ ПАПКА (6)\GAMELOFT_HOMEWORK\2_COLOR\UTILITIES\MATH.CPP
D:\НОВАЯ ПАПКА (6)\GAMELOFT_HOMEWORK\2_COLOR\UTILITIES\DEBUG\VC120.PDB
^D:\НОВАЯ ПАПКА (6)\GAMELOFT_HOMEWORK\2_COLOR\UTILITIES\MEMORYMANAGER.CPP
D:\НОВАЯ ПАПКА (6)\GAMELOFT_HOMEWORK\2_COLOR\UTILITIES\DEBUG\VC120.PDB
^D:\НОВАЯ ПАПКА (6)\GAMELOFT_HOMEWORK\2_COLOR\UTILITIES\MEMORYOPERATORS.CPP
D:\НОВАЯ ПАПКА (6)\GAMELOFT_HOMEWORK\2_COLOR\UTILITIES\DEBUG\VC120.PDB
^D:\НОВАЯ ПАПКА (6)\GAMELOFT_HOMEWORK\2_COLOR\UTILITIES\TGA.CPP
D:\НОВАЯ ПАПКА (6)\GAMELOFT_HOMEWORK\2_COLOR\UTILITIES\DEBUG\VC120.PDB
