^D:\NEWTRAININGFRAMEWORK\UTILITIES\DEBUG\ESSHADER.OBJ|D:\NEWTRAININGFRAMEWORK\UTILITIES\DEBUG\ESUTIL.OBJ|D:\NEWTRAININGFRAMEWORK\UTILITIES\DEBUG\ESUTIL_WIN.OBJ|D:\NEWTRAININGFRAMEWORK\UTILITIES\DEBUG\MATH.OBJ|D:\NEWTRAININGFRAMEWORK\UTILITIES\DEBUG\MEMORYMANAGER.OBJ|D:\NEWTRAININGFRAMEWORK\UTILITIES\DEBUG\MEMORYOPERATORS.OBJ|D:\NEWTRAININGFRAMEWORK\UTILITIES\DEBUG\STDAFX.OBJ|D:\NEWTRAININGFRAMEWORK\UTILITIES\DEBUG\TGA.OBJ
/OUT:"D:\NEWTRAININGFRAMEWORK\DEBUG\UTILITIES.LIB" /NOLOGO DEBUG\ESSHADER.OBJDEBUG\ESUTIL.OBJDEBUG\ESUTIL_WIN.OBJDEBUG\MATH.OBJDEBUG\MEMORYMANAGER.OBJDEBUG\MEMORYOPERATORS.OBJDEBUG\STDAFX.OBJDEBUG\TGA.OBJ
^D:\НОВАЯ ПАПКА (6)\GAMELOFT_HOMEWORK\2_COLOR\UTILITIES\DEBUG\ESSHADER.OBJ|D:\НОВАЯ ПАПКА (6)\GAMELOFT_HOMEWORK\2_COLOR\UTILITIES\DEBUG\ESUTIL.OBJ|D:\НОВАЯ ПАПКА (6)\GAMELOFT_HOMEWORK\2_COLOR\UTILITIES\DEBUG\ESUTIL_WIN.OBJ|D:\НОВАЯ ПАПКА (6)\GAMELOFT_HOMEWORK\2_COLOR\UTILITIES\DEBUG\MATH.OBJ|D:\НОВАЯ ПАПКА (6)\GAMELOFT_HOMEWORK\2_COLOR\UTILITIES\DEBUG\MEMORYMANAGER.OBJ|D:\НОВАЯ ПАПКА (6)\GAMELOFT_HOMEWORK\2_COLOR\UTILITIES\DEBUG\MEMORYOPERATORS.OBJ|D:\НОВАЯ ПАПКА (6)\GAMELOFT_HOMEWORK\2_COLOR\UTILITIES\DEBUG\STDAFX.OBJ|D:\НОВАЯ ПАПКА (6)\GAMELOFT_HOMEWORK\2_COLOR\UTILITIES\DEBUG\TGA.OBJ
/OUT:"D:\НОВАЯ ПАПКА (6)\GAMELOFT_HOMEWORK\2_COLOR\DEBUG\UTILITIES.LIB" /NOLOGO DEBUG\ESSHADER.OBJDEBUG\ESUTIL.OBJDEBUG\ESUTIL_WIN.OBJDEBUG\MATH.OBJDEBUG\MEMORYMANAGER.OBJDEBUG\MEMORYOPERATORS.OBJDEBUG\STDAFX.OBJDEBUG\TGA.OBJ
